COGS 137 - 01-intro-to-r
…
Let’s take another look

Sometimes you need to babysit your respondents

cat_lovers |>
  mutate(number_of_cats = case_when(name == "Ginger Clark" ~ 2,
                                    name == "Doug Bass"~ 3,
                                    TRUE ~ as.numeric(number_of_cats))) 

Warning: There was 1 warning in `mutate()`.
ℹ In argument: `number_of_cats = case_when(...)`.
Caused by warning:
! NAs introduced by coercion

# A tibble: 60 × 3
   name           number_of_cats handedness
   <chr>                   <dbl> <chr>     
 1 Bernice Warren              0 left      
 2 Woodrow Stone               0 left      
 3 Willie Bass                 1 left      
 4 Tyrone Estrada              3 left      
 5 Alex Daniels                3 left      
 6 Jane Bates                  2 left      
 7 Latoya Simpson              1 left      
 8 Darin Woods                 1 left      
 9 Agnes Cobb                  0 left      
10 Tabitha Grant               0 left      
# ℹ 50 more rows
…
