COGS 137 - 03-dplyr
…
Filter rows with filter

Select a subset of rows in a data frame.

Easily filter for many conditions at once.

filter (single condition)

for only measurements from Occasional users

WB |>
  filter(Group == "Occasional user")

# A tibble: 750 × 14
   ID    Treatment Group    `FLUID TYPE` Timepoint   CBN   CBD   THC `11-OH-THC`
   <chr> <chr>     <chr>    <chr>        <chr>     <dbl> <dbl> <dbl>       <dbl>
 1 11255 5.90%     Occasio… WB           T1          0       0   0.5         0  
 2 11255 5.90%     Occasio… WB           T2A         2.8     0  32.4         5.4
 3 11255 5.90%     Occasio… WB           T2B         0.6     0   5.1         2.4
 4 11255 5.90%     Occasio… WB           T3A         0       0   3.2         1.8
 5 11255 5.90%     Occasio… WB           T3B         0       0   1.8         1.4
 6 11255 5.90%     Occasio… WB           T4A         0       0   1.2         0  
 7 11255 5.90%     Occasio… WB           T4B         0       0   0.9         0  
 8 11255 5.90%     Occasio… WB           T5A         0       0   0.8         0  
 9 11255 5.90%     Occasio… WB           T5B         0       0   0.6         0  
10 T0316 13.40%    Occasio… WB           T1          0       0   0           0  
# ℹ 740 more rows
# ℹ 5 more variables: `THC-COOH` <dbl>, `THC-COOH-Gluc` <dbl>, CBG <dbl>,
#   `THC-V` <dbl>, time.from.start <dbl>
…
# A tibble: 2 × 14
  ID    Treatment Group     `FLUID TYPE` Timepoint   CBN   CBD   THC `11-OH-THC`
  <chr> <chr>     <chr>     <chr>        <chr>     <dbl> <dbl> <dbl>       <dbl>
1 11467 5.90%     Occasion… WB           T2A        14.5     0  156.        15.5
2 28344 5.90%     Occasion… WB           T2A        11       0  126.        12.2
# ℹ 5 more variables: `THC-COOH` <dbl>, `THC-COOH-Gluc` <dbl>, CBG <dbl>,
#   `THC-V` <dbl>, time.from.start <dbl>

select` a range of variables

WB |>
  select(ID:`FLUID TYPE`)

# A tibble: 1,525 × 4
   ID    Treatment Group           `FLUID TYPE`
   <chr> <chr>     <chr>           <chr>       
 1 11255 5.90%     Occasional user WB          
 2 11255 5.90%     Occasional user WB          
 3 11255 5.90%     Occasional user WB          
 4 11255 5.90%     Occasional user WB          
 5 11255 5.90%     Occasional user WB          
 6 11255 5.90%     Occasional user WB          
 7 11255 5.90%     Occasional user WB          
 8 11255 5.90%     Occasional user WB          
 9 11255 5.90%     Occasional user WB          
10 T0686 5.90%     Frequent user   WB          
# ℹ 1,515 more rows

ID:FLUID TYPE: take all columns from ID through FLUID TYPE

FLUID TYPE has backticks due to space in column name

select to keep range + others

WB |>
  select(ID:`FLUID TYPE`, THC, time.from.start)

# A tibble: 1,525 × 6
   ID    Treatment Group           `FLUID TYPE`   THC time.from.start
   <chr> <chr>     <chr>           <chr>        <dbl>           <dbl>
 1 11255 5.90%     Occasional user WB             0.5             -27
 2 11255 5.90%     Occasional user WB            32.4              15
 3 11255 5.90%     Occasional user WB             5.1              69
 4 11255 5.90%     Occasional user WB             3.2             111
 5 11255 5.90%     Occasional user WB             1.8             156
 6 11255 5.90%     Occasional user WB             1.2             236
 7 11255 5.90%     Occasional user WB             0.9             283
 8 11255 5.90%     Occasional user WB             0.8             315
 9 11255 5.90%     Occasional user WB             0.6             360
10 T0686 5.90%     Frequent user   WB             0               -10
# ℹ 1,515 more rows

select to exclude variables

WB |>
  select(-Timepoint)

# A tibble: 1,525 × 13
   ID    Treatment Group   `FLUID TYPE`   CBN   CBD   THC `11-OH-THC` `THC-COOH`
   <chr> <chr>     <chr>   <chr>        <dbl> <dbl> <dbl>       <dbl>      <dbl>
 1 11255 5.90%     Occasi… WB             0       0   0.5         0          5.7
 2 11255 5.90%     Occasi… WB             2.8     0  32.4         5.4       13.5
 3 11255 5.90%     Occasi… WB             0.6     0   5.1         2.4       11.7
 4 11255 5.90%     Occasi… WB             0       0   3.2         1.8        9.7
 5 11255 5.90%     Occasi… WB             0       0   1.8         1.4        8.7
 6 11255 5.90%     Occasi… WB             0       0   1.2         0          6.7
 7 11255 5.90%     Occasi… WB             0       0   0.9         0          6.8
 8 11255 5.90%     Occasi… WB             0       0   0.8         0          6.8
 9 11255 5.90%     Occasi… WB             0       0   0.6         0          6.3
10 T0686 5.90%     Freque… WB             0       0   0           0          1.9
# ℹ 1,515 more rows
# ℹ 4 more variables: `THC-COOH-Gluc` <dbl>, CBG <dbl>, `THC-V` <dbl>,
#   time.from.start <dbl>

select can rename columns

WB |>
  select(ID:`FLUID TYPE`, THC, start_time = time.from.start)

# A tibble: 1,525 × 6
   ID    Treatment Group           `FLUID TYPE`   THC start_time
   <chr> <chr>     <chr>           <chr>        <dbl>      <dbl>
 1 11255 5.90%     Occasional user WB             0.5        -27
 2 11255 5.90%     Occasional user WB            32.4         15
 3 11255 5.90%     Occasional user WB             5.1         69
 4 11255 5.90%     Occasional user WB             3.2        111
 5 11255 5.90%     Occasional user WB             1.8        156
 6 11255 5.90%     Occasional user WB             1.2        236
 7 11255 5.90%     Occasional user WB             0.9        283
 8 11255 5.90%     Occasional user WB             0.8        315
 9 11255 5.90%     Occasional user WB             0.6        360
10 T0686 5.90%     Frequent user   WB             0          -10
# ℹ 1,515 more rows
…
[1] "ID"         "Treatment"  "Group"      "FLUID TYPE" "THC"       
[6] "start_time"

WB_sub <- WB_sub |>
  rename(fluid_type = `FLUID TYPE`)

mutate to add new variables

Note assigning back out to itself with new column

(WB_sub <- WB_sub |> 
  mutate(baseline = start_time < 0))

# A tibble: 1,525 × 7
   ID    Treatment Group           fluid_type   THC start_time baseline
   <chr> <chr>     <chr>           <chr>      <dbl>      <dbl> <lgl>   
 1 11255 5.90%     Occasional user WB           0.5        -27 TRUE    
 2 11255 5.90%     Occasional user WB          32.4         15 FALSE   
 3 11255 5.90%     Occasional user WB           5.1         69 FALSE   
 4 11255 5.90%     Occasional user WB           3.2        111 FALSE   
 5 11255 5.90%     Occasional user WB           1.8        156 FALSE   
 6 11255 5.90%     Occasional user WB           1.2        236 FALSE   
 7 11255 5.90%     Occasional user WB           0.9        283 FALSE   
 8 11255 5.90%     Occasional user WB           0.8        315 FALSE   
 9 11255 5.90%     Occasional user WB           0.6        360 FALSE   
10 T0686 5.90%     Frequent user   WB           0          -10 TRUE    
# ℹ 1,515 more rows
…
Your Turn

You’re starting to work on the case study and you get curious. How many non-baseline observations have a THC > 50. Does this number differ by treatment or group?

Put a green sticky on the front of your computer when you’re done. Put a pink if you want help/have a question.

and arrange to order rows

WB_sub |>
  arrange(THC)

# A tibble: 1,525 × 7
   ID    Treatment Group           fluid_type   THC start_time baseline
   <chr> <chr>     <chr>           <chr>      <dbl>      <dbl> <lgl>   
 1 T0686 5.90%     Frequent user   WB             0        -10 TRUE    
 2 11258 13.40%    Frequent user   WB             0        -25 TRUE    
 3 11258 13.40%    Frequent user   WB             0        375 FALSE   
 4 T0316 13.40%    Occasional user WB             0        -78 TRUE    
 5 11234 Placebo   Frequent user   WB             0        -64 TRUE    
 6 11234 Placebo   Frequent user   WB             0         12 FALSE   
 7 11234 Placebo   Frequent user   WB             0         85 FALSE   
 8 11234 Placebo   Frequent user   WB             0        126 FALSE   
 9 11234 Placebo   Frequent user   WB             0        210 FALSE   
10 11234 Placebo   Frequent user   WB             0        249 FALSE   
# ℹ 1,515 more rows

   If you wanted to arrange these in descending order what would you add to the code?

distinct to filter for unique rows

How many unique participants?

WB_sub |> 
  distinct(ID) 

# A tibble: 190 × 1
   ID   
   <chr>
 1 11255
 2 T0686
 3 11258
 4 11264
 5 11263
 6 T0316
 7 11270
 8 11234
 9 11323
10 10972
# ℹ 180 more rows

distinct has a .keep_all parameter

WB_sub |> 
  distinct(ID, .keep_all=TRUE) 

# A tibble: 190 × 7
   ID    Treatment Group           fluid_type   THC start_time baseline
   <chr> <chr>     <chr>           <chr>      <dbl>      <dbl> <lgl>   
 1 11255 5.90%     Occasional user WB           0.5        -27 TRUE    
 2 T0686 5.90%     Frequent user   WB           0          -10 TRUE    
 3 11258 13.40%    Frequent user   WB           0          -25 TRUE    
 4 11264 13.40%    Frequent user   WB           2.4        -30 TRUE    
 5 11263 5.90%     Frequent user   WB           3.2        -26 TRUE    
 6 T0316 13.40%    Occasional user WB           0          -78 TRUE    
 7 11270 Placebo   Frequent user   WB           4.6        -70 TRUE    
 8 11234 Placebo   Frequent user   WB           0          -64 TRUE    
 9 11323 Placebo   Occasional user WB           0.8        -71 TRUE    
10 10972 13.40%    Frequent user   WB           3.9        -72 TRUE    
# ℹ 180 more rows
…
Data Cleaning

WB |> 
  mutate(timepoint = case_when(time_from_start < 0 ~ "pre-smoking",
                               time_from_start > 0 & time_from_start <= 30 ~ "0-30 min",
                               time_from_start > 30 & time_from_start <= 70 ~ "31-70 min",
                               time_from_start > 70 & time_from_start <= 100 ~ "71-100 min",
                               time_from_start > 100 & time_from_start <= 180 ~ "101-180 min",
                               time_from_start > 180 & time_from_start <= 210 ~ "181-210 min",
                               time_from_start > 210 & time_from_start <= 240 ~ "211-240 min",
                               time_from_start > 240 & time_from_start <= 270 ~ "241-270 min",
                               time_from_start > 270 & time_from_start <= 300 ~ "271-300 min",
                               time_from_start > 300 ~ "301+ min"))

# A tibble: 1,525 × 14
   id    treatment    group fluid_type timepoint   cbn   cbd   thc thcoh thccooh
   <chr> <fct>        <chr> <chr>      <chr>     <dbl> <dbl> <dbl> <dbl>   <dbl>
 1 11255 5.9% THC (l… Occa… WB         pre-smok…   0       0   0.5   0       5.7
 2 11255 5.9% THC (l… Occa… WB         0-30 min    2.8     0  32.4   5.4    13.5
 3 11255 5.9% THC (l… Occa… WB         31-70 min   0.6     0   5.1   2.4    11.7
 4 11255 5.9% THC (l… Occa… WB         101-180 …   0       0   3.2   1.8     9.7
 5 11255 5.9% THC (l… Occa… WB         101-180 …   0       0   1.8   1.4     8.7
 6 11255 5.9% THC (l… Occa… WB         211-240 …   0       0   1.2   0       6.7
 7 11255 5.9% THC (l… Occa… WB         271-300 …   0       0   0.9   0       6.8
 8 11255 5.9% THC (l… Occa… WB         301+ min    0       0   0.8   0       6.8
 9 11255 5.9% THC (l… Occa… WB         301+ min    0       0   0.6   0       6.3
10 T0686 5.9% THC (l… Freq… WB         pre-smok…   0       0   0     0       1.9
# ℹ 1,515 more rows
# ℹ 4 more variables: thccooh_gluc <dbl>, cbg <dbl>, thcv <dbl>,
#   time_from_start <dbl>
…
