COGS 137 - 06-cs01-eda
…
# Specify all parameter combinations
param_grid <- expand.grid(
  cutoffs = cutoffs,
  compounds = compounds,
  timepoint_use = WB_timepoints)

# Calculate for all cutoff-compound-timepoint combinations
WB_ss <- purrr::pmap_dfr(param_grid, ~ make_calculations(dataset=WB, cutoff = ..1, compound = as.character(..2), timepoint_use = ..3))

WB_ss

# A tibble: 400 × 14
      TP    FN    FP    TN detection_limit compound time_window   NAs     N
   <dbl> <dbl> <int> <int>           <dbl> <chr>    <fct>       <int> <int>
 1     0     0     1   188             0.5 cbn      pre-smoking  1336  1525
 2     0     0     0   189             1   cbn      pre-smoking  1336  1525
 3     0     0     0   189             2   cbn      pre-smoking  1336  1525
 4     0     0     0   189             5   cbn      pre-smoking  1336  1525
 5     0     0     0   189            10   cbn      pre-smoking  1336  1525
 6     0     0     4   185             0.5 cbd      pre-smoking  1336  1525
 7     0     0     1   188             1   cbd      pre-smoking  1336  1525
 8     0     0     1   188             2   cbd      pre-smoking  1336  1525
 9     0     0     0   189             5   cbd      pre-smoking  1336  1525
10     0     0     0   189            10   cbd      pre-smoking  1336  1525
# ℹ 390 more rows
# ℹ 5 more variables: Sensitivity <dbl>, Specificity <dbl>, PPV <dbl>,
#   NPV <dbl>, Efficiency <dbl>
…
# Specify all parameter combinations
param_grid <- expand.grid(
  cutoffs = cutoffs,
  compounds = compounds,
  timepoint_use = OF_timepoints)

# Calculate for all cutoff-compound-timepoint combinations
OF_ss <- purrr::pmap_dfr(param_grid, ~ make_calculations(dataset=OF, cutoff = ..1, compound = as.character(..2), timepoint_use = ..3))

OF_ss

# A tibble: 210 × 14
      TP    FN    FP    TN detection_limit compound time_window   NAs     N
   <dbl> <dbl> <int> <int>           <dbl> <chr>    <fct>       <int> <int>
 1     0     0     5   187             0.5 cbn      pre-smoking   761   953
 2     0     0     1   191             1   cbn      pre-smoking   761   953
 3     0     0     1   191             2   cbn      pre-smoking   761   953
 4     0     0     1   191             5   cbn      pre-smoking   761   953
 5     0     0     0   192            10   cbn      pre-smoking   761   953
 6     0     0     4   188             0.5 cbd      pre-smoking   761   953
 7     0     0     1   191             1   cbd      pre-smoking   761   953
 8     0     0     1   191             2   cbd      pre-smoking   761   953
 9     0     0     0   192             5   cbd      pre-smoking   761   953
10     0     0     0   192            10   cbd      pre-smoking   761   953
# ℹ 200 more rows
# ℹ 5 more variables: Sensitivity <dbl>, Specificity <dbl>, PPV <dbl>,
#   NPV <dbl>, Efficiency <dbl>
…
# Specify all parameter combinations
param_grid <- expand.grid(
  cutoffs = cutoffs,
  compounds = compounds,
  timepoint_use = OF_timepoints)

# Calculate for all cutoff-compound-timepoint combinations
BR_ss <- purrr::pmap_dfr(param_grid, ~ make_calculations(dataset=BR, cutoff = ..1, compound = as.character(..2), timepoint_use = ..3))

BR_ss

# A tibble: 25 × 14
      TP    FN    FP    TN detection_limit compound time_window   NAs     N
   <dbl> <dbl> <int> <int>           <dbl> <chr>    <fct>       <int> <int>
 1     0     0     6   185             0.5 thc      pre-smoking   758   949
 2     0     0     6   185             1   thc      pre-smoking   758   949
 3     0     0     6   185             2   thc      pre-smoking   758   949
 4     0     0     6   185             5   thc      pre-smoking   758   949
 5     0     0     6   185            10   thc      pre-smoking   758   949
 6    24    66     0    30             0.5 thc      91-180 min    829   949
 7    24    66     0    30             1   thc      91-180 min    829   949
 8    24    66     0    30             2   thc      91-180 min    829   949
 9    24    66     0    30             5   thc      91-180 min    829   949
10    24    66     0    30            10   thc      91-180 min    829   949
# ℹ 15 more rows
# ℹ 5 more variables: Sensitivity <dbl>, Specificity <dbl>, PPV <dbl>,
#   NPV <dbl>, Efficiency <dbl>
…
