COGS 137 - 10-cs02-eda
…
large range of possible values for many variables (i.e. population)

Consider variable type - need more factors?

Understand why ID is not uniformally distributed; figure out which are overrepresented; decide what to do

log or other transformations necessary? decide during EDA

Why 49 “states”?

pm |> 
  distinct(state) 

# A tibble: 49 × 1
   state               
   <chr>               
 1 Alabama             
 2 Arizona             
 3 Arkansas            
 4 California          
 5 Colorado            
 6 Connecticut         
 7 Delaware            
 8 District Of Columbia
 9 Florida             
10 Georgia             
# ℹ 39 more rows
…
