COGS 137 - 13-cs02-analysis
…
set.seed <- ensures we all get the exact same random split

output displayed: <training data sample number, testing data sample number, original sample number>

More on how people decide what proportions to use for data splitting here

Split the Data

train_pm <- rsample::training(pm_split)
test_pm <- rsample::testing(pm_split)
 
# Scroll through the output!
count(train_pm, state)

# A tibble: 49 × 2
   state                    n
   <chr>                <int>
 1 Alabama                 13
 2 Arizona                 12
 3 Arkansas                 8
 4 California              55
 5 Colorado                10
 6 Connecticut             12
 7 Delaware                 3
 8 District Of Columbia     2
 9 Florida                 22
10 Georgia                 20
# ℹ 39 more rows
…
── Inputs 

Number of variables by role

outcome:      1
predictor:   48
id variable:  1

❓ Can someone summarize what this code is specifying?

Summarizing our recipe thus far:

summary(simple_rec)

# A tibble: 50 × 4
   variable type      role        source  
   <chr>    <list>    <chr>       <chr>   
 1 id       <chr [3]> id variable original
 2 value    <chr [2]> outcome     original
 3 fips     <chr [3]> predictor   original
 4 lat      <chr [2]> predictor   original
 5 lon      <chr [2]> predictor   original
 6 state    <chr [3]> predictor   original
 7 county   <chr [3]> predictor   original
 8 city     <chr [3]> predictor   original
 9 CMAQ     <chr [2]> predictor   original
10 zcta     <chr [3]> predictor   original
# ℹ 40 more rows
…
Step 4: Assess model fit

wflowoutput <- PM_wflow_fit |> 
  extract_fit_parsnip() |> 
  broom::tidy() 

wflowoutput

# A tibble: 36 × 5
   term         estimate std.error statistic       p.value
   <chr>           <dbl>     <dbl>     <dbl>         <dbl>
 1 (Intercept)  2.94e+ 2  1.18e+ 2     2.49  0.0130       
 2 lat          3.26e- 2  2.28e- 2     1.43  0.153        
 3 lon          1.59e- 2  1.01e- 2     1.58  0.115        
 4 CMAQ         2.46e- 1  3.97e- 2     6.20  0.00000000108
 5 zcta_area   -3.43e-10  1.60e-10    -2.15  0.0320       
 6 zcta_pop     1.01e- 5  5.33e- 6     1.90  0.0578       
 7 imp_a500     5.06e- 3  7.42e- 3     0.683 0.495        
 8 imp_a15000  -3.07e- 3  1.16e- 2    -0.263 0.792        
 9 county_area -2.32e-11  1.97e-11    -1.18  0.238        
10 county_pop  -7.58e- 8  9.29e- 8    -0.815 0.415        
# ℹ 26 more rows
…
There were issues with some computations:

  - Warning(s) x1: 36 columns were requested but there were 35 predictors in the dat...

Run `show_notes(.Last.tune.result)` for more information.

Check Metrics:

tune_RF_results |>
  collect_metrics()

# A tibble: 40 × 8
    mtry min_n .metric .estimator  mean     n std_err .config              
   <int> <int> <chr>   <chr>      <dbl> <int>   <dbl> <chr>                
 1    12    33 rmse    standard   1.72      4  0.0866 Preprocessor1_Model01
 2    12    33 rsq     standard   0.562     4  0.0466 Preprocessor1_Model01
 3    27    35 rmse    standard   1.69      4  0.102  Preprocessor1_Model02
 4    27    35 rsq     standard   0.563     4  0.0511 Preprocessor1_Model02
 5    22    40 rmse    standard   1.71      4  0.106  Preprocessor1_Model03
 6    22    40 rsq     standard   0.556     4  0.0543 Preprocessor1_Model03
 7     1    27 rmse    standard   2.03      4  0.0501 Preprocessor1_Model04
 8     1    27 rsq     standard   0.440     4  0.0245 Preprocessor1_Model04
 9     6    32 rmse    standard   1.77      4  0.0756 Preprocessor1_Model05
10     6    32 rsq     standard   0.552     4  0.0435 Preprocessor1_Model05
# ℹ 30 more rows
…
# fit data
RF_final_train_fit <- parsnip::fit(RF_tuned_wflow, data = train_pm)
RF_final_test_fit <- parsnip::fit(RF_tuned_wflow, data = test_pm)

# get predictions on training data
values_pred_train <- predict(RF_final_train_fit, train_pm) |> 
  bind_cols(train_pm |> select(value, fips, county, id)) 

# get predictions on testing data
values_pred_test <- predict(RF_final_test_fit, test_pm) |> 
  bind_cols(test_pm |> select(value, fips, county, id)) 
values_pred_test

# A tibble: 292 × 5
   .pred value fips  county     id       
   <dbl> <dbl> <fct> <chr>      <fct>    
 1  11.6  11.2 1033  Colbert    1033.1002
 2  11.9  12.4 1055  Etowah     1055.001 
 3  11.1  10.5 1069  Houston    1069.0003
 4  13.9  15.6 1073  Jefferson  1073.0023
 5  12.0  12.4 1073  Jefferson  1073.1005
 6  11.3  11.1 1073  Jefferson  1073.1009
 7  11.5  11.8 1073  Jefferson  1073.5003
 8  11.0  10.0 1097  Mobile     1097.0003
 9  11.9  12.0 1101  Montgomery 1101.0007
10  12.9  13.2 1113  Russell    1113.0001
# ℹ 282 more rows
…
